module gitlab.com/gitlab-org/podgc

go 1.17

require (
	github.com/BurntSushi/toml v0.4.1
	github.com/sirupsen/logrus v1.8.1
	github.com/stretchr/testify v1.7.0
	github.com/urfave/cli v1.22.5
	gitlab.com/ayufan/golang-cli-helpers v0.0.0-20171103152739-a7cf72d604cd
	golang.org/x/sync v0.0.0-20210220032951-036812b2e83c
	k8s.io/api v0.22.1
	k8s.io/apimachinery v0.22.1
	k8s.io/client-go v0.22.1
)

require (
	github.com/cpuguy83/go-md2man/v2 v2.0.0-20190314233015-f79a8a8ca69d // indirect
	github.com/davecgh/go-spew v1.1.1 // indirect
	github.com/go-logr/logr v0.4.0 // indirect
	github.com/gogo/protobuf v1.3.2 // indirect
	github.com/golang/protobuf v1.5.2 // indirect
	github.com/google/go-cmp v0.5.5 // indirect
	github.com/google/gofuzz v1.1.0 // indirect
	github.com/googleapis/gnostic v0.5.5 // indirect
	github.com/imdario/mergo v0.3.5 // indirect
	github.com/json-iterator/go v1.1.11 // indirect
	github.com/modern-go/concurrent v0.0.0-20180306012644-bacd9c7ef1dd // indirect
	github.com/modern-go/reflect2 v1.0.1 // indirect
	github.com/pmezard/go-difflib v1.0.0 // indirect
	github.com/russross/blackfriday/v2 v2.0.1 // indirect
	github.com/shurcooL/sanitized_anchor_name v1.0.0 // indirect
	github.com/spf13/pflag v1.0.5 // indirect
	github.com/stretchr/objx v0.1.0 // indirect
	golang.org/x/net v0.0.0-20210520170846-37e1c6afe023 // indirect
	golang.org/x/oauth2 v0.0.0-20200107190931-bf48bf16ab8d // indirect
	golang.org/x/sys v0.0.0-20210616094352-59db8d763f22 // indirect
	golang.org/x/term v0.0.0-20210220032956-6a3ed077a48d // indirect
	golang.org/x/text v0.3.6 // indirect
	golang.org/x/time v0.0.0-20210723032227-1f47c861a9ac // indirect
	google.golang.org/appengine v1.6.5 // indirect
	google.golang.org/protobuf v1.26.0 // indirect
	gopkg.in/inf.v0 v0.9.1 // indirect
	gopkg.in/yaml.v2 v2.4.0 // indirect
	gopkg.in/yaml.v3 v3.0.0-20210107192922-496545a6307b // indirect
	k8s.io/klog/v2 v2.9.0 // indirect
	k8s.io/utils v0.0.0-20210707171843-4b05e18ac7d9 // indirect
	sigs.k8s.io/structured-merge-diff/v4 v4.1.2 // indirect
	sigs.k8s.io/yaml v1.2.0 // indirect
)
